2019-10-31 17:08:05,065 :INFO : test_e2e :getting all the card titles
2019-10-31 17:08:05,117 :INFO : test_e2e :iphone X
2019-10-31 17:08:05,132 :INFO : test_e2e :Samsung Note 8
2019-10-31 17:08:05,147 :INFO : test_e2e :Nokia Edge
2019-10-31 17:08:05,157 :INFO : test_e2e :Blackberry
2019-10-31 17:08:05,474 :INFO : test_e2e :Entering country name as ind
2019-10-31 17:08:11,326 :INFO : test_e2e :Text received from application is ×
Success! Thank you! Your order will be delivered in next few weeks :-).
2019-10-31 17:10:15,117 :INFO : test_formSubmission :first name is Rahul
2019-10-31 17:10:16,200 :INFO : test_formSubmission :first name is Anshika
2019-10-31 17:10:16,200 :INFO : test_formSubmission :first name is Anshika
2019-10-31 17:10:24,932 :INFO : test_e2e :getting all the card titles
2019-10-31 17:10:24,972 :INFO : test_e2e :iphone X
2019-10-31 17:10:24,994 :INFO : test_e2e :Samsung Note 8
2019-10-31 17:10:25,016 :INFO : test_e2e :Nokia Edge
2019-10-31 17:10:25,042 :INFO : test_e2e :Blackberry
2019-10-31 17:10:25,342 :INFO : test_e2e :Entering country name as ind
2019-10-31 17:10:31,139 :INFO : test_e2e :Text received from application is ×
Success! Thank you! Your order will be delivered in next few weeks :-).
2019-10-31 17:18:16,603 :INFO : test_formSubmission :first name is Rahul
2019-10-31 17:18:17,774 :INFO : test_formSubmission :first name is Anshika
2019-10-31 17:18:17,774 :INFO : test_formSubmission :first name is Anshika
2019-10-31 17:18:26,657 :INFO : test_e2e :getting all the card titles
2019-10-31 17:18:26,704 :INFO : test_e2e :iphone X
2019-10-31 17:18:26,722 :INFO : test_e2e :Samsung Note 8
2019-10-31 17:18:26,746 :INFO : test_e2e :Nokia Edge
2019-10-31 17:18:26,771 :INFO : test_e2e :Blackberry
2019-10-31 17:18:27,121 :INFO : test_e2e :Entering country name as ind
2019-10-31 17:18:32,947 :INFO : test_e2e :Text received from application is ×
Success! Thank you! Your order will be delivered in next few weeks :-).
2019-10-31 17:29:38,283 :INFO : test_formSubmission :first name is Rahul
2019-10-31 17:29:39,456 :INFO : test_formSubmission :first name is Anshika
2019-10-31 17:29:39,456 :INFO : test_formSubmission :first name is Anshika
2019-10-31 17:29:48,118 :INFO : test_e2e :getting all the card titles
2019-10-31 17:29:48,168 :INFO : test_e2e :iphone X
2019-10-31 17:29:48,187 :INFO : test_e2e :Samsung Note 8
2019-10-31 17:29:48,211 :INFO : test_e2e :Nokia Edge
2019-10-31 17:29:48,239 :INFO : test_e2e :Blackberry
2019-10-31 17:29:48,574 :INFO : test_e2e :Entering country name as ind
2019-10-31 17:29:54,317 :INFO : test_e2e :Text received from application is ×
Success! Thank you! Your order will be delivered in next few weeks :-).
2019-10-31 17:31:14,000 :INFO : test_formSubmission :first name is Rahul
2019-10-31 17:31:15,050 :INFO : test_formSubmission :first name is Anshika
2019-10-31 17:31:15,050 :INFO : test_formSubmission :first name is Anshika
2019-10-31 17:31:24,466 :INFO : test_e2e :getting all the card titles
2019-10-31 17:31:24,531 :INFO : test_e2e :iphone X
2019-10-31 17:31:24,562 :INFO : test_e2e :Samsung Note 8
2019-10-31 17:31:24,596 :INFO : test_e2e :Nokia Edge
2019-10-31 17:31:24,629 :INFO : test_e2e :Blackberry
2019-10-31 17:31:24,991 :INFO : test_e2e :Entering country name as ind
2019-10-31 17:31:30,681 :INFO : test_e2e :Text received from application is ×
Success! Thank you! Your order will be delivered in next few weeks :-).
2019-10-31 17:46:48,494 :INFO : test_e2e :getting all the card titles
2019-10-31 17:46:48,549 :INFO : test_e2e :iphone X
2019-10-31 17:46:48,567 :INFO : test_e2e :Samsung Note 8
2019-10-31 17:46:48,583 :INFO : test_e2e :Nokia Edge
2019-10-31 17:46:48,598 :INFO : test_e2e :Blackberry
2019-10-31 17:46:48,854 :INFO : test_e2e :Entering country name as ind
2019-10-31 17:46:54,475 :INFO : test_e2e :Text received from application is ×
Success! Thank you! Your order will be delivered in next few weeks :-).
2019-10-31 17:58:24,223 :INFO : test_e2e :getting all the card titles
2019-10-31 17:58:24,300 :INFO : test_e2e :iphone X
2019-10-31 17:58:24,348 :INFO : test_e2e :Samsung Note 8
2019-10-31 17:58:24,381 :INFO : test_e2e :Nokia Edge
2019-10-31 17:58:24,411 :INFO : test_e2e :Blackberry
2019-10-31 17:58:24,768 :INFO : test_e2e :Entering country name as ind
2019-10-31 17:58:30,448 :INFO : test_e2e :Text received from application is ×
Success! Thank you! Your order will be delivered in next few weeks :-).
2019-10-31 18:03:09,266 :INFO : test_e2e :getting all the card titles
2019-10-31 18:03:09,317 :INFO : test_e2e :iphone X
2019-10-31 18:03:09,339 :INFO : test_e2e :Samsung Note 8
2019-10-31 18:03:09,371 :INFO : test_e2e :Nokia Edge
2019-10-31 18:03:09,395 :INFO : test_e2e :Blackberry
2019-10-31 18:03:09,702 :INFO : test_e2e :Entering country name as ind
2019-10-31 18:03:15,723 :INFO : test_e2e :Text received from application is ×
Success! Thank you! Your order will be delivered in next few weeks :-).
2019-10-31 18:04:38,971 :INFO : test_e2e :getting all the card titles
2019-10-31 18:04:39,025 :INFO : test_e2e :iphone X
2019-10-31 18:04:39,051 :INFO : test_e2e :Samsung Note 8
2019-10-31 18:04:39,080 :INFO : test_e2e :Nokia Edge
2019-10-31 18:04:39,105 :INFO : test_e2e :Blackberry
2019-10-31 18:04:39,448 :INFO : test_e2e :Entering country name as ind
2019-10-31 18:04:45,286 :INFO : test_e2e :Text received from application is ×
Success! Thank you! Your order will be delivered in next few weeks :-).
2019-10-31 18:08:02,947 :INFO : test_e2e :getting all the card titles
2019-10-31 18:08:02,994 :INFO : test_e2e :iphone X
2019-10-31 18:08:03,019 :INFO : test_e2e :Samsung Note 8
2019-10-31 18:08:03,053 :INFO : test_e2e :Nokia Edge
2019-10-31 18:08:03,082 :INFO : test_e2e :Blackberry
2019-10-31 18:08:03,438 :INFO : test_e2e :Entering country name as ind
2019-10-31 18:08:09,282 :INFO : test_e2e :Text received from application is ×
Success! Thank you! Your order will be delivered in next few weeks :-).
2019-10-31 18:08:22,319 :INFO : test_e2e :getting all the card titles
2019-10-31 18:08:22,377 :INFO : test_e2e :iphone X
2019-10-31 18:08:22,400 :INFO : test_e2e :Samsung Note 8
2019-10-31 18:08:22,426 :INFO : test_e2e :Nokia Edge
2019-10-31 18:08:22,451 :INFO : test_e2e :Blackberry
2019-10-31 18:08:22,797 :INFO : test_e2e :Entering country name as ind
2019-10-31 18:08:28,573 :INFO : test_e2e :Text received from application is ×
Success! Thank you! Your order will be delivered in next few weeks :-).
2019-10-31 18:21:44,032 :INFO : test_e2e :getting all the card titles
2019-10-31 18:21:44,078 :INFO : test_e2e :iphone X
2019-10-31 18:21:44,097 :INFO : test_e2e :Samsung Note 8
2019-10-31 18:21:44,123 :INFO : test_e2e :Nokia Edge
2019-10-31 18:21:44,148 :INFO : test_e2e :Blackberry
2019-10-31 18:21:44,433 :INFO : test_e2e :Entering country name as ind
2019-10-31 18:21:50,225 :INFO : test_e2e :Text received from application is ×
Success! Thank you! Your order will be delivered in next few weeks :-).
2019-10-31 18:26:05,801 :INFO : test_e2e :getting all the card titles
2019-10-31 18:26:05,846 :INFO : test_e2e :iphone X
2019-10-31 18:26:05,866 :INFO : test_e2e :Samsung Note 8
2019-10-31 18:26:05,893 :INFO : test_e2e :Nokia Edge
2019-10-31 18:26:05,919 :INFO : test_e2e :Blackberry
2019-10-31 18:26:06,195 :INFO : test_e2e :Entering country name as ind
2019-10-31 18:26:11,961 :INFO : test_e2e :Text received from application is ×
Success! Thank you! Your order will be delivered in next few weeks :-).
2019-10-31 18:28:02,729 :INFO : test_formSubmission :first name is Rahul
2019-10-31 18:28:04,184 :INFO : test_formSubmission :first name is Anshika
2019-10-31 18:28:04,184 :INFO : test_formSubmission :first name is Anshika
2019-10-31 18:28:13,895 :INFO : test_e2e :getting all the card titles
2019-10-31 18:28:13,963 :INFO : test_e2e :iphone X
2019-10-31 18:28:13,980 :INFO : test_e2e :Samsung Note 8
2019-10-31 18:28:13,996 :INFO : test_e2e :Nokia Edge
2019-10-31 18:28:14,012 :INFO : test_e2e :Blackberry
2019-10-31 18:28:14,320 :INFO : test_e2e :Entering country name as ind
2019-10-31 18:28:20,187 :INFO : test_e2e :Text received from application is ×
Success! Thank you! Your order will be delivered in next few weeks :-).
2019-10-31 22:21:35,900 :INFO : test_formSubmission :first name is Rahul
2019-10-31 22:21:37,188 :INFO : test_formSubmission :first name is Anshika
2019-10-31 22:21:37,188 :INFO : test_formSubmission :first name is Anshika
2019-10-31 22:21:45,543 :INFO : test_e2e :getting all the card titles
2019-10-31 22:21:45,588 :INFO : test_e2e :iphone X
2019-10-31 22:21:45,605 :INFO : test_e2e :Samsung Note 8
2019-10-31 22:21:45,628 :INFO : test_e2e :Nokia Edge
2019-10-31 22:21:45,654 :INFO : test_e2e :Blackberry
2019-10-31 22:21:45,984 :INFO : test_e2e :Entering country name as ind
2019-10-31 22:21:51,663 :INFO : test_e2e :Text received from application is ×
Success! Thank you! Your order will be delivered in next few weeks :-).
2019-10-31 22:26:34,173 :INFO : test_formSubmission :first name is Rahul
2019-10-31 22:26:35,122 :INFO : test_formSubmission :first name is Anshika
2019-10-31 22:26:35,122 :INFO : test_formSubmission :first name is Anshika
2019-10-31 22:26:44,396 :INFO : test_e2e :getting all the card titles
2019-10-31 22:26:44,440 :INFO : test_e2e :iphone X
2019-10-31 22:26:44,457 :INFO : test_e2e :Samsung Note 8
2019-10-31 22:26:44,481 :INFO : test_e2e :Nokia Edge
2019-10-31 22:26:44,503 :INFO : test_e2e :Blackberry
2019-10-31 22:26:44,789 :INFO : test_e2e :Entering country name as ind
2019-10-31 22:26:50,595 :INFO : test_e2e :Text received from application is ×
Success! Thank you! Your order will be delivered in next few weeks :-).
2019-10-31 22:27:12,450 :INFO : test_formSubmission :first name is Rahul
2019-10-31 22:27:15,689 :INFO : test_formSubmission :first name is Anshika
2019-10-31 22:27:15,689 :INFO : test_formSubmission :first name is Anshika
2019-10-31 22:27:31,362 :INFO : test_e2e :getting all the card titles
2019-10-31 22:27:31,399 :INFO : test_e2e :iphone X
2019-10-31 22:27:31,409 :INFO : test_e2e :Samsung Note 8
2019-10-31 22:27:31,417 :INFO : test_e2e :Nokia Edge
2019-10-31 22:27:31,425 :INFO : test_e2e :Blackberry
2019-10-31 22:27:32,233 :INFO : test_e2e :Entering country name as ind
2019-10-31 22:27:38,139 :INFO : test_e2e :Text received from application is ×
Success! Thank you! Your order will be delivered in next few weeks :-).
2019-10-31 22:28:42,481 :INFO : test_formSubmission :first name is Rahul
2019-10-31 22:28:45,883 :INFO : test_formSubmission :first name is Anshika
2019-10-31 22:28:45,883 :INFO : test_formSubmission :first name is Anshika
2019-10-31 22:29:03,033 :INFO : test_e2e :getting all the card titles
2019-10-31 22:29:03,072 :INFO : test_e2e :iphone X
2019-10-31 22:29:03,088 :INFO : test_e2e :Samsung Note 8
2019-10-31 22:29:03,101 :INFO : test_e2e :Nokia Edge
2019-10-31 22:29:03,114 :INFO : test_e2e :Blackberry
2019-10-31 22:29:03,907 :INFO : test_e2e :Entering country name as ind
2019-10-31 22:29:10,366 :INFO : test_e2e :Text received from application is ×
Success! Thank you! Your order will be delivered in next few weeks :-).
2019-10-31 22:31:10,831 :INFO : test_formSubmission :first name is Rahul
2019-10-31 22:31:14,255 :INFO : test_formSubmission :first name is Anshika
2019-10-31 22:31:14,255 :INFO : test_formSubmission :first name is Anshika
2019-10-31 22:31:30,122 :INFO : test_e2e :getting all the card titles
2019-10-31 22:31:30,157 :INFO : test_e2e :iphone X
2019-10-31 22:31:30,168 :INFO : test_e2e :Samsung Note 8
2019-10-31 22:31:30,180 :INFO : test_e2e :Nokia Edge
2019-10-31 22:31:30,188 :INFO : test_e2e :Blackberry
2019-10-31 22:31:30,920 :INFO : test_e2e :Entering country name as ind
2019-10-31 22:31:37,299 :INFO : test_e2e :Text received from application is ×
Success! Thank you! Your order will be delivered in next few weeks :-).
2019-10-31 22:32:55,874 :INFO : test_formSubmission :first name is Rahul
2019-10-31 22:32:56,883 :INFO : test_formSubmission :first name is Anshika
2019-10-31 22:32:56,883 :INFO : test_formSubmission :first name is Anshika
2019-10-31 22:33:06,345 :INFO : test_e2e :getting all the card titles
2019-10-31 22:33:06,393 :INFO : test_e2e :iphone X
2019-10-31 22:33:06,416 :INFO : test_e2e :Samsung Note 8
2019-10-31 22:33:06,447 :INFO : test_e2e :Nokia Edge
2019-10-31 22:33:06,476 :INFO : test_e2e :Blackberry
2019-10-31 22:33:06,790 :INFO : test_e2e :Entering country name as ind
2019-10-31 22:33:12,509 :INFO : test_e2e :Text received from application is ×
Success! Thank you! Your order will be delivered in next few weeks :-).
2019-10-31 22:35:31,328 :INFO : test_formSubmission :first name is Rahul
2019-10-31 22:35:32,291 :INFO : test_formSubmission :first name is Anshika
2019-10-31 22:35:32,291 :INFO : test_formSubmission :first name is Anshika
2019-10-31 22:35:40,955 :INFO : test_e2e :getting all the card titles
2019-10-31 22:35:41,007 :INFO : test_e2e :iphone X
2019-10-31 22:35:41,027 :INFO : test_e2e :Samsung Note 8
2019-10-31 22:35:41,055 :INFO : test_e2e :Nokia Edge
2019-10-31 22:35:41,081 :INFO : test_e2e :Blackberry
2019-10-31 22:35:41,410 :INFO : test_e2e :Entering country name as ind
2019-10-31 22:35:47,254 :INFO : test_e2e :Text received from application is ×
Success! Thank you! Your order will be delivered in next few weeks :-).
2019-10-31 22:40:16,604 :INFO : test_formSubmission :first name is Rahul
2019-10-31 22:40:17,650 :INFO : test_formSubmission :first name is Anshika
2019-10-31 22:40:17,650 :INFO : test_formSubmission :first name is Anshika
2019-10-31 22:40:27,085 :INFO : test_e2e :getting all the card titles
2019-10-31 22:40:27,145 :INFO : test_e2e :iphone X
2019-10-31 22:40:27,168 :INFO : test_e2e :Samsung Note 8
2019-10-31 22:40:27,201 :INFO : test_e2e :Nokia Edge
2019-10-31 22:40:27,238 :INFO : test_e2e :Blackberry
2019-10-31 22:40:27,561 :INFO : test_e2e :Entering country name as ind
2019-10-31 22:40:33,333 :INFO : test_e2e :Text received from application is ×
Success! Thank you! Your order will be delivered in next few weeks :-).
2019-10-31 22:46:36,261 :INFO : test_formSubmission :first name is Rahul
2019-10-31 22:46:39,679 :INFO : test_formSubmission :first name is Anshika
2019-10-31 22:46:39,679 :INFO : test_formSubmission :first name is Anshika
2019-10-31 22:46:55,257 :INFO : test_e2e :getting all the card titles
2019-10-31 22:46:55,297 :INFO : test_e2e :iphone X
2019-10-31 22:46:55,308 :INFO : test_e2e :Samsung Note 8
2019-10-31 22:46:55,316 :INFO : test_e2e :Nokia Edge
2019-10-31 22:46:55,325 :INFO : test_e2e :Blackberry
2019-10-31 22:46:56,119 :INFO : test_e2e :Entering country name as ind
2019-10-31 22:47:02,495 :INFO : test_e2e :Text received from application is ×
Success! Thank you! Your order will be delivered in next few weeks :-).
2019-10-31 22:53:20,410 :INFO : test_formSubmission :first name is Rahul
2019-10-31 22:53:21,425 :INFO : test_formSubmission :first name is Anshika
2019-10-31 22:53:21,425 :INFO : test_formSubmission :first name is Anshika
2019-10-31 22:53:30,963 :INFO : test_e2e :getting all the card titles
2019-10-31 22:53:31,019 :INFO : test_e2e :iphone X
2019-10-31 22:53:31,045 :INFO : test_e2e :Samsung Note 8
2019-10-31 22:53:31,074 :INFO : test_e2e :Nokia Edge
2019-10-31 22:53:31,102 :INFO : test_e2e :Blackberry
2019-10-31 22:53:31,415 :INFO : test_e2e :Entering country name as ind
2019-10-31 22:53:37,154 :INFO : test_e2e :Text received from application is ×
Success! Thank you! Your order will be delivered in next few weeks :-).
2019-10-31 22:59:48,772 :INFO : test_formSubmission :first name is Rahul
2019-10-31 22:59:49,967 :INFO : test_formSubmission :first name is Anshika
2019-10-31 22:59:49,967 :INFO : test_formSubmission :first name is Anshika
2019-10-31 22:59:59,280 :INFO : test_e2e :getting all the card titles
2019-10-31 22:59:59,334 :INFO : test_e2e :iphone X
2019-10-31 22:59:59,357 :INFO : test_e2e :Samsung Note 8
2019-10-31 22:59:59,380 :INFO : test_e2e :Nokia Edge
2019-10-31 22:59:59,396 :INFO : test_e2e :Blackberry
2019-10-31 22:59:59,770 :INFO : test_e2e :Entering country name as ind
2019-10-31 23:00:05,507 :INFO : test_e2e :Text received from application is ×
Success! Thank you! Your order will be delivered in next few weeks :-).
2019-11-01 07:54:01,989 :INFO : test_formSubmission :first name is Rahul
2019-11-01 07:54:03,587 :INFO : test_formSubmission :first name is Anshika
2019-11-01 07:54:03,587 :INFO : test_formSubmission :first name is Anshika
2019-11-01 07:54:12,471 :INFO : test_e2e :getting all the card titles
2019-11-01 07:54:12,525 :INFO : test_e2e :iphone X
2019-11-01 07:54:12,544 :INFO : test_e2e :Samsung Note 8
2019-11-01 07:54:12,573 :INFO : test_e2e :Nokia Edge
2019-11-01 07:54:12,602 :INFO : test_e2e :Blackberry
2019-11-01 07:54:12,976 :INFO : test_e2e :Entering country name as ind
2019-11-01 07:54:18,923 :INFO : test_e2e :Text received from application is ×
Success! Thank you! Your order will be delivered in next few weeks :-).
2019-11-01 08:00:26,008 :INFO : test_formSubmission :first name is Rahul
2019-11-01 08:00:29,332 :INFO : test_formSubmission :first name is Anshika
2019-11-01 08:00:29,332 :INFO : test_formSubmission :first name is Anshika
2019-11-01 08:00:45,264 :INFO : test_e2e :getting all the card titles
2019-11-01 08:00:45,306 :INFO : test_e2e :iphone X
2019-11-01 08:00:45,320 :INFO : test_e2e :Samsung Note 8
2019-11-01 08:00:45,326 :INFO : test_e2e :Nokia Edge
2019-11-01 08:00:45,335 :INFO : test_e2e :Blackberry
2019-11-01 08:00:46,091 :INFO : test_e2e :Entering country name as ind
2019-11-01 08:00:52,495 :INFO : test_e2e :Text received from application is ×
Success! Thank you! Your order will be delivered in next few weeks :-).
2019-11-01 08:09:39,434 :INFO : test_formSubmission :first name is Rahul
2019-11-01 08:09:40,995 :INFO : test_formSubmission :first name is Anshika
2019-11-01 08:09:40,995 :INFO : test_formSubmission :first name is Anshika
2019-11-01 08:09:51,110 :INFO : test_e2e :getting all the card titles
2019-11-01 08:09:51,161 :INFO : test_e2e :iphone X
2019-11-01 08:09:51,179 :INFO : test_e2e :Samsung Note 8
2019-11-01 08:09:51,204 :INFO : test_e2e :Nokia Edge
2019-11-01 08:09:51,232 :INFO : test_e2e :Blackberry
2019-11-01 08:09:51,591 :INFO : test_e2e :Entering country name as ind
2019-11-01 08:09:57,393 :INFO : test_e2e :Text received from application is ×
Success! Thank you! Your order will be delivered in next few weeks :-).
2019-11-12 08:29:34,787 :INFO : test_e2e :getting all the card titles
2019-11-12 08:29:34,846 :INFO : test_e2e :iphone X
2019-11-12 08:29:34,859 :INFO : test_e2e :Samsung Note 8
2019-11-12 08:29:34,874 :INFO : test_e2e :Nokia Edge
2019-11-12 08:29:34,893 :INFO : test_e2e :Blackberry
2019-11-12 08:29:35,204 :INFO : test_e2e :Entering country name as ind
2019-11-12 08:30:06,604 :INFO : test_formSubmission :first name is Rahul
2019-11-12 08:30:30,638 :INFO : test_formSubmission :first name is Rahul
2020-02-08 16:06:18,860 :INFO : test_formSubmission :first name is Rahul
2020-02-08 16:06:19,522 :INFO : test_formSubmission :first name is Anshika
2020-02-08 16:06:19,522 :INFO : test_formSubmission :first name is Anshika
2020-02-08 16:07:45,974 :INFO : test_formSubmission :first name is Vit Osicka
2020-02-08 16:07:46,863 :INFO : test_formSubmission :first name is Gabriel Malý
2020-02-08 16:07:46,863 :INFO : test_formSubmission :first name is Gabriel Malý
2020-02-08 16:08:38,120 :INFO : test_formSubmission :first name is Vit Osicka
2020-02-08 16:09:24,557 :INFO : test_formSubmission :first name is Gabriel Maly
2020-02-08 16:16:30,902 :INFO : test_formSubmission :first name is Gabriel Maly
2020-02-08 16:16:48,299 :INFO : test_e2e :getting all the card titles
2020-02-08 16:16:48,373 :INFO : test_e2e :iphone X
2020-02-08 16:16:48,399 :INFO : test_e2e :Samsung Note 8
2020-02-08 16:16:48,423 :INFO : test_e2e :Nokia Edge
2020-02-08 16:16:48,448 :INFO : test_e2e :Blackberry
2020-02-08 16:16:48,761 :INFO : test_e2e :Entering country name as ind
2020-02-08 16:16:54,815 :INFO : test_e2e :Text received from application is ×
Success! Thank you! Your order will be delivered in next few weeks :-).
2020-02-08 16:22:32,252 :INFO : test_formSubmission :first name is Gabriel Maly
2020-02-08 16:31:48,018 :INFO : test_formSubmission :first name is Gabriel Maly
2020-02-08 16:36:20,312 :INFO : test_formSubmission :first name is Gabriel Maly
2020-02-08 16:37:32,434 :INFO : test_formSubmission :first name is Gabriel Maly
2020-02-08 16:38:14,671 :INFO : test_formSubmission :first name is Gabriel Maly
2020-02-08 16:39:28,816 :INFO : test_formSubmission :first name is Gabriel Maly
2020-02-10 09:39:12,271 :INFO : test_formSubmission :first name is Vit Osicka
2020-02-10 09:39:17,298 :INFO : test_formSubmission :first name is Gabriel Malý
2020-02-10 09:39:17,298 :INFO : test_formSubmission :first name is Gabriel Malý
2020-02-12 10:39:50,094 :INFO : test_standard_payment :Card number: 4125010001000208 Expiration: 1121 CVC: 150
2020-02-12 10:40:05,095 :INFO : test_standard_payment :Card number: 5168440001000202 Expiration: 0921 CVC: 170
2020-02-12 10:40:05,095 :INFO : test_standard_payment :Card number: 5168440001000202 Expiration: 0921 CVC: 170
2020-02-12 14:34:51,360 :INFO : test_standard_payment :Platba bez moznosti ulozit kartu
2020-02-12 14:34:51,362 :INFO : test_standard_payment :Card number: 4550550001000207 Expiration: 1121 CVC: 150
2020-02-12 14:35:26,973 :INFO : test_standard_payment :Platba bez moznosti ulozit kartu
2020-02-12 14:35:26,974 :INFO : test_standard_payment :Card number: 4550550001000207 Expiration: 1121 CVC: 150
2020-02-12 14:37:56,568 :INFO : test_standard_payment :Platba bez moznosti ulozit kartu
2020-02-12 14:37:56,568 :INFO : test_standard_payment :Card number: 4550550001000207 Expiration: 1121 CVC: 150
2020-02-12 14:38:38,584 :INFO : test_standard_payment :Platba bez moznosti ulozit kartu
2020-02-12 14:38:38,585 :INFO : test_standard_payment :Card number: 4550550001000207 Expiration: 1121 CVC: 150
2020-02-12 14:39:14,444 :INFO : test_standard_payment :Platba bez moznosti ulozit kartu
2020-02-12 14:39:14,444 :INFO : test_standard_payment :Card number: 4550550001000207 Expiration: 1121 CVC: 150
2020-02-12 14:39:55,448 :INFO : test_standard_payment :Platba bez moznosti ulozit kartu
2020-02-12 14:39:55,448 :INFO : test_standard_payment :Card number: 4550550001000207 Expiration: 1121 CVC: 150
2020-02-12 14:40:41,077 :INFO : test_standard_payment :Platba bez moznosti ulozit kartu
2020-02-12 14:40:41,077 :INFO : test_standard_payment :Card number: 4550550001000207 Expiration: 1121 CVC: 150
2020-02-12 14:59:09,699 :INFO : test_standard_payment :Platba bez moznosti ulozit kartu
2020-02-12 14:59:09,699 :INFO : test_standard_payment :Card number: 4550550001000207 Expiration: 1121 CVC: 150
2020-02-12 15:01:39,991 :INFO : test_standard_payment :Platba bez moznosti ulozit kartu
2020-02-12 15:01:39,991 :INFO : test_standard_payment :Card number: 4550550001000207 Expiration: 1121 CVC: 150
2020-02-12 15:03:16,742 :INFO : test_standard_payment :Platba bez moznosti ulozit kartu
2020-02-12 15:03:16,743 :INFO : test_standard_payment :Card number: 4550550001000207 Expiration: 1121 CVC: 150
2020-02-12 15:06:09,091 :INFO : test_standard_payment :Platba bez moznosti ulozit kartu
2020-02-12 15:06:09,092 :INFO : test_standard_payment :Card number: 4550550001000207 Expiration: 1121 CVC: 150
2020-02-12 15:11:40,054 :INFO : test_standard_payment :Platba bez moznosti ulozit kartu
2020-02-12 15:11:40,055 :INFO : test_standard_payment :Card number: 4550550001000207 Expiration: 1121 CVC: 150
2020-02-12 15:30:57,214 :INFO : test_standard_payment :4
2020-02-12 15:30:58,788 :INFO : test_standard_payment :Platba bez moznosti ulozit kartu
2020-02-12 15:30:58,789 :INFO : test_standard_payment :Card number: 4550550001000207 Expiration: 1121 CVC: 150
2020-02-12 15:34:31,539 :INFO : test_standard_payment :4
2020-02-12 15:34:33,123 :INFO : test_standard_payment :Platba bez moznosti ulozit kartu
2020-02-12 15:34:33,124 :INFO : test_standard_payment :Card number: 4550550001000207 Expiration: 1121 CVC: 150
2020-02-12 15:39:45,776 :INFO : test_standard_payment :Platba bez moznosti ulozit kartu
2020-02-12 15:39:45,778 :INFO : test_standard_payment :Card number: 4550550001000207 Expiration: 1121 CVC: 150
2020-02-12 15:41:59,709 :INFO : test_standard_payment :Platba bez moznosti ulozit kartu
2020-02-12 15:41:59,711 :INFO : test_standard_payment :Card number: 4550550001000207 Expiration: 1121 CVC: 150
2020-02-13 08:48:54,419 :INFO : test_standard_payment :Platba pouze VISA
2020-02-13 08:48:54,421 :INFO : test_standard_payment :Platba bez moznosti ulozit kartu
2020-02-13 08:48:54,422 :INFO : test_standard_payment :Card number: 4550550001000207 Expiration: 1121 CVC: 150
2020-02-13 08:51:55,680 :INFO : test_standard_payment :Platba pouze VISA
2020-02-13 12:21:35,739 :INFO : test_standard_payment :Neakceptovaná platba brand: MasterCardCard number: 5168440001000202 Expiration: 1121 CVC: 150
2020-02-13 12:53:23,216 :INFO : test_standard_payment :Neakceptovaná platba brand: MasterCardCard number: 5168440001000202 Expiration: 1121 CVC: 150
2020-02-13 12:53:27,461 :INFO : test_standard_payment :Akceptovaná platba brand: VISACard number: 4125010001000208 Expiration: 0921 CVC: 170
2020-02-13 12:53:27,461 :INFO : test_standard_payment :Akceptovaná platba brand: VISACard number: 4125010001000208 Expiration: 0921 CVC: 170
2020-02-13 13:18:11,588 :INFO : test_standard_payment :Neakceptovaná platba brand: MasterCard Card number: 5168440001000202 Expiration: 1121 CVC: 150
2020-02-13 13:18:15,257 :INFO : test_standard_payment :Akceptovaná platba brand: VISA Card number: 4125010001000208 Expiration: 0921 CVC: 170
2020-02-13 13:18:15,257 :INFO : test_standard_payment :Akceptovaná platba brand: VISA Card number: 4125010001000208 Expiration: 0921 CVC: 170
2020-02-13 13:21:44,081 :INFO : test_standard_payment :Neakceptovaná platba brand: MasterCard Card number: 5168440001000202 Expiration: 1121 CVC: 150
2020-02-13 13:21:48,921 :INFO : test_standard_payment :Akceptovaná platba brand: VISA Card number: 4125010001000208 Expiration: 0921 CVC: 170
2020-02-13 13:21:48,921 :INFO : test_standard_payment :Akceptovaná platba brand: VISA Card number: 4125010001000208 Expiration: 0921 CVC: 170
2020-02-13 13:22:04,117 :INFO : test_standard_payment :Neakceptovaná platba brand: Diners Card number: 30569309025904 Expiration: 1123 CVC: 180
2020-02-13 13:22:04,117 :INFO : test_standard_payment :Neakceptovaná platba brand: Diners Card number: 30569309025904 Expiration: 1123 CVC: 180
2020-02-13 13:22:04,117 :INFO : test_standard_payment :Neakceptovaná platba brand: Diners Card number: 30569309025904 Expiration: 1123 CVC: 180
2020-02-14 14:38:45,514 :WARNING : test_standard_payment :Platba bez moznosti ulozit kartu
2020-02-14 14:38:45,515 :INFO : test_standard_payment :Card number: 4125010001000208 Expiration: 1121 CVC: 150
2020-02-14 14:39:28,153 :WARNING : test_standard_payment :Platby mpass@bank ani pt@bank nejsou dostupné
2020-02-14 14:39:34,635 :WARNING : test_standard_payment :Platba bez moznosti ulozit kartu
2020-02-14 14:39:34,635 :INFO : test_standard_payment :Card number: 4125010001000208 Expiration: 1121 CVC: 150
2020-02-14 14:39:52,623 :WARNING : test_standard_payment :Platby mpass@bank ani pt@bank nejsou dostupné
2020-02-14 14:39:52,623 :WARNING : test_standard_payment :Platby mpass@bank ani pt@bank nejsou dostupné
2020-02-14 14:39:59,098 :WARNING : test_standard_payment :Platba bez moznosti ulozit kartu
2020-02-14 14:39:59,098 :WARNING : test_standard_payment :Platba bez moznosti ulozit kartu
2020-02-14 14:39:59,098 :INFO : test_standard_payment :Card number: 5168440001000202 Expiration: 0921 CVC: 170
2020-02-14 14:39:59,098 :INFO : test_standard_payment :Card number: 5168440001000202 Expiration: 0921 CVC: 170
2020-02-14 14:51:24,720 :WARNING : test_standard_payment :Platby mpass@bank ani pt@bank nejsou dostupne - podle scenare OK
2020-02-14 14:51:31,278 :WARNING : test_standard_payment :Platba bez moznosti ulozit kartu  - podle scenare OK
2020-02-14 14:51:31,278 :INFO : test_standard_payment :Card number: 5168440001000202 Expiration: 1121 CVC: 150
2020-02-14 14:51:50,359 :WARNING : test_standard_payment :Platby mpass@bank ani pt@bank nejsou dostupne - podle scenare OK
2020-02-14 14:51:50,359 :WARNING : test_standard_payment :Platby mpass@bank ani pt@bank nejsou dostupne - podle scenare OK
2020-02-14 14:51:57,113 :WARNING : test_standard_payment :Platba bez moznosti ulozit kartu  - podle scenare OK
2020-02-14 14:51:57,113 :WARNING : test_standard_payment :Platba bez moznosti ulozit kartu  - podle scenare OK
2020-02-14 14:51:57,114 :INFO : test_standard_payment :Card number: 4125010001000208 Expiration: 0921 CVC: 170
2020-02-14 14:51:57,114 :INFO : test_standard_payment :Card number: 4125010001000208 Expiration: 0921 CVC: 170
2020-02-14 14:52:14,716 :WARNING : test_standard_payment :Platby mpass@bank ani pt@bank nejsou dostupne - podle scenare OK
2020-02-14 14:52:14,716 :WARNING : test_standard_payment :Platby mpass@bank ani pt@bank nejsou dostupne - podle scenare OK
2020-02-14 14:52:14,716 :WARNING : test_standard_payment :Platby mpass@bank ani pt@bank nejsou dostupne - podle scenare OK
2020-02-14 14:52:21,042 :WARNING : test_standard_payment :Platba bez moznosti ulozit kartu  - podle scenare OK
2020-02-14 14:52:21,042 :WARNING : test_standard_payment :Platba bez moznosti ulozit kartu  - podle scenare OK
2020-02-14 14:52:21,042 :WARNING : test_standard_payment :Platba bez moznosti ulozit kartu  - podle scenare OK
2020-02-14 14:52:21,043 :INFO : test_standard_payment :Card number: 30569309025904 Expiration: 1123 CVC: 180
2020-02-14 14:52:21,043 :INFO : test_standard_payment :Card number: 30569309025904 Expiration: 1123 CVC: 180
2020-02-14 14:52:21,043 :INFO : test_standard_payment :Card number: 30569309025904 Expiration: 1123 CVC: 180
2020-02-17 10:46:56,998 :WARNING : test_standard_payment :Platby mpass@bank ani pt@bank nejsou dostupne - podle scenare OK
2020-02-17 10:47:03,429 :WARNING : test_standard_payment :Platba bez moznosti ulozit kartu  - podle scenare OK
2020-02-17 10:47:03,429 :INFO : test_standard_payment :Card number: 5168440001000202 Expiration: 1121 CVC: 150
2020-02-18 15:47:32,088 :WARNING : test_standard_payment :Platby mpass@bank ani pt@bank nejsou dostupne - podle scenare OK
2020-02-18 15:47:33,589 :INFO : test_standard_payment :Card number: 5168440001000202 Expiration: 1121 CVC: 150
2020-02-19 08:34:10,995 :WARNING : test_standard_payment :Platby mpass@bank ani pt@bank nejsou dostupne - podle scenare OK
2020-02-19 08:34:12,645 :INFO : test_standard_payment :Card number: 5168440001000202 Expiration: 1121 CVC: 150
2020-02-19 08:34:25,113 :WARNING : test_standard_payment :Platby mpass@bank ani pt@bank nejsou dostupne - podle scenare OK
2020-02-19 08:34:25,113 :WARNING : test_standard_payment :Platby mpass@bank ani pt@bank nejsou dostupne - podle scenare OK
2020-02-19 08:34:26,770 :INFO : test_standard_payment :Card number: 4125010001000208 Expiration: 0921 CVC: 170
2020-02-19 08:34:26,770 :INFO : test_standard_payment :Card number: 4125010001000208 Expiration: 0921 CVC: 170
2020-02-19 08:34:38,655 :WARNING : test_standard_payment :Platby mpass@bank ani pt@bank nejsou dostupne - podle scenare OK
2020-02-19 08:34:38,655 :WARNING : test_standard_payment :Platby mpass@bank ani pt@bank nejsou dostupne - podle scenare OK
2020-02-19 08:34:38,655 :WARNING : test_standard_payment :Platby mpass@bank ani pt@bank nejsou dostupne - podle scenare OK
2020-02-19 08:34:40,155 :INFO : test_standard_payment :Card number: 30569309025904 Expiration: 1123 CVC: 180
2020-02-19 08:34:40,155 :INFO : test_standard_payment :Card number: 30569309025904 Expiration: 1123 CVC: 180
2020-02-19 08:34:40,155 :INFO : test_standard_payment :Card number: 30569309025904 Expiration: 1123 CVC: 180
2020-02-19 08:36:27,229 :WARNING : test_standard_payment :Platby mpass@bank ani pt@bank nejsou dostupne - podle scenare OK
2020-02-19 08:36:28,800 :INFO : test_standard_payment :Card number: 5168440001000202 Expiration: 1121 CVC: 150
2020-02-19 08:36:41,250 :WARNING : test_standard_payment :Platby mpass@bank ani pt@bank nejsou dostupne - podle scenare OK
2020-02-19 08:36:41,250 :WARNING : test_standard_payment :Platby mpass@bank ani pt@bank nejsou dostupne - podle scenare OK
2020-02-19 08:36:42,868 :INFO : test_standard_payment :Card number: 4125010001000208 Expiration: 0921 CVC: 170
2020-02-19 08:36:42,868 :INFO : test_standard_payment :Card number: 4125010001000208 Expiration: 0921 CVC: 170
2020-02-19 08:36:54,828 :WARNING : test_standard_payment :Platby mpass@bank ani pt@bank nejsou dostupne - podle scenare OK
2020-02-19 08:36:54,828 :WARNING : test_standard_payment :Platby mpass@bank ani pt@bank nejsou dostupne - podle scenare OK
2020-02-19 08:36:54,828 :WARNING : test_standard_payment :Platby mpass@bank ani pt@bank nejsou dostupne - podle scenare OK
2020-02-19 08:36:56,322 :INFO : test_standard_payment :Card number: 30569309025904 Expiration: 1123 CVC: 180
2020-02-19 08:36:56,322 :INFO : test_standard_payment :Card number: 30569309025904 Expiration: 1123 CVC: 180
2020-02-19 08:36:56,322 :INFO : test_standard_payment :Card number: 30569309025904 Expiration: 1123 CVC: 180
2020-02-19 08:37:41,119 :WARNING : test_standard_payment :Platby mpass@bank ani pt@bank nejsou dostupne - podle scenare OK
2020-02-19 08:41:38,087 :WARNING : test_standard_payment :Platby mpass@bank ani pt@bank nejsou dostupne - podle scenare OK
2020-02-19 08:42:47,613 :WARNING : test_standard_payment :Platby mpass@bank ani pt@bank nejsou dostupne - podle scenare OK
2020-02-19 08:42:49,172 :INFO : test_standard_payment :Card number: 5168440001000202 Expiration: 1121 CVC: 150
2020-02-19 08:43:01,427 :WARNING : test_standard_payment :Platby mpass@bank ani pt@bank nejsou dostupne - podle scenare OK
2020-02-19 08:43:01,427 :WARNING : test_standard_payment :Platby mpass@bank ani pt@bank nejsou dostupne - podle scenare OK
2020-02-19 08:43:03,016 :INFO : test_standard_payment :Card number: 4125010001000208 Expiration: 0921 CVC: 170
2020-02-19 08:43:03,016 :INFO : test_standard_payment :Card number: 4125010001000208 Expiration: 0921 CVC: 170
2020-02-19 08:43:15,947 :WARNING : test_standard_payment :Platby mpass@bank ani pt@bank nejsou dostupne - podle scenare OK
2020-02-19 08:43:15,947 :WARNING : test_standard_payment :Platby mpass@bank ani pt@bank nejsou dostupne - podle scenare OK
2020-02-19 08:43:15,947 :WARNING : test_standard_payment :Platby mpass@bank ani pt@bank nejsou dostupne - podle scenare OK
2020-02-19 08:43:17,464 :INFO : test_standard_payment :Card number: 30569309025904 Expiration: 1123 CVC: 180
2020-02-19 08:43:17,464 :INFO : test_standard_payment :Card number: 30569309025904 Expiration: 1123 CVC: 180
2020-02-19 08:43:17,464 :INFO : test_standard_payment :Card number: 30569309025904 Expiration: 1123 CVC: 180
2020-02-19 08:48:24,453 :WARNING : test_standard_payment :Platby mpass@bank ani pt@bank nejsou dostupne - podle scenare OK
2020-02-19 08:48:26,008 :INFO : test_standard_payment :Card number: 5168440001000202 Expiration: 1121 CVC: 150
2020-02-19 08:48:39,275 :WARNING : test_standard_payment :Platby mpass@bank ani pt@bank nejsou dostupne - podle scenare OK
2020-02-19 08:48:39,275 :WARNING : test_standard_payment :Platby mpass@bank ani pt@bank nejsou dostupne - podle scenare OK
2020-02-19 08:48:40,890 :INFO : test_standard_payment :Card number: 4125010001000208 Expiration: 0921 CVC: 170
2020-02-19 08:48:40,890 :INFO : test_standard_payment :Card number: 4125010001000208 Expiration: 0921 CVC: 170
2020-02-19 08:48:53,904 :WARNING : test_standard_payment :Platby mpass@bank ani pt@bank nejsou dostupne - podle scenare OK
2020-02-19 08:48:53,904 :WARNING : test_standard_payment :Platby mpass@bank ani pt@bank nejsou dostupne - podle scenare OK
2020-02-19 08:48:53,904 :WARNING : test_standard_payment :Platby mpass@bank ani pt@bank nejsou dostupne - podle scenare OK
2020-02-19 08:48:55,698 :INFO : test_standard_payment :Card number: 30569309025904 Expiration: 1123 CVC: 180
2020-02-19 08:48:55,698 :INFO : test_standard_payment :Card number: 30569309025904 Expiration: 1123 CVC: 180
2020-02-19 08:48:55,698 :INFO : test_standard_payment :Card number: 30569309025904 Expiration: 1123 CVC: 180
2020-02-19 08:50:54,270 :INFO : test_standard_payment :Card number: 5168440001000202 Expiration: 1121 CVC: 150
2020-02-19 08:51:09,140 :INFO : test_standard_payment :Card number: 4125010001000208 Expiration: 0921 CVC: 170
2020-02-19 08:51:09,140 :INFO : test_standard_payment :Card number: 4125010001000208 Expiration: 0921 CVC: 170
2020-02-19 08:51:23,484 :INFO : test_standard_payment :Card number: 30569309025904 Expiration: 1123 CVC: 180
2020-02-19 08:51:23,484 :INFO : test_standard_payment :Card number: 30569309025904 Expiration: 1123 CVC: 180
2020-02-19 08:51:23,484 :INFO : test_standard_payment :Card number: 30569309025904 Expiration: 1123 CVC: 180
2020-02-19 08:52:00,418 :WARNING : test_standard_payment :Platby mpass@bank ani pt@bank nejsou dostupne - podle scenare OK
2020-02-19 11:54:07,461 :INFO : test_standard_payment :Dostupne vsechny platebni metody - OK
2020-02-19 11:57:15,079 :INFO : test_standard_payment :Dostupne vsechny platebni metody - OK
2020-02-19 11:58:16,302 :INFO : test_standard_payment :Dostupne vsechny platebni metody - OK
2020-02-19 12:01:46,302 :INFO : test_standard_payment :Dostupne vsechny platebni metody - OK
2020-02-19 12:05:56,469 :INFO : test_standard_payment :Dostupne vsechny platebni metody - OK
2020-02-19 12:10:33,940 :INFO : test_standard_payment :Dostupne vsechny platebni metody - OK
2020-02-19 14:56:08,416 :INFO : test_standard_payment :Dostupne vsechny platebni metody - OK
2020-02-20 11:55:55,741 :INFO : test_standard_payment :Platba bez platebniho tlacitka i MPASS - OK
2020-02-20 11:56:00,775 :WARNING : test_standard_payment :Platba bez moznosti ulozit kartu - podle scenare OK
2020-02-20 11:56:12,585 :INFO : test_standard_payment :Akceptováno - stav CLEARED - OK
2020-02-20 11:56:18,364 :INFO : test_standard_payment :Platba bez platebniho tlacitka i MPASS - OK
2020-02-20 11:56:18,364 :INFO : test_standard_payment :Platba bez platebniho tlacitka i MPASS - OK
2020-02-20 11:56:23,387 :WARNING : test_standard_payment :Platba bez moznosti ulozit kartu - podle scenare OK
2020-02-20 11:56:23,387 :WARNING : test_standard_payment :Platba bez moznosti ulozit kartu - podle scenare OK
2020-02-20 11:57:21,038 :INFO : test_standard_payment :Platba zamitnuta - stav DECLINED - OK
2020-02-20 11:57:21,038 :INFO : test_standard_payment :Platba zamitnuta - stav DECLINED - OK
2020-02-20 11:58:14,255 :INFO : test_standard_payment :Platba bez platebniho tlacitka i MPASS - OK
2020-02-20 11:58:19,274 :WARNING : test_standard_payment :Platba bez moznosti ulozit kartu - podle scenare OK
2020-02-20 11:58:32,838 :INFO : test_standard_payment :Akceptováno - stav CLEARED - OK
2020-02-20 11:58:38,573 :INFO : test_standard_payment :Platba bez platebniho tlacitka i MPASS - OK
2020-02-20 11:58:38,573 :INFO : test_standard_payment :Platba bez platebniho tlacitka i MPASS - OK
2020-02-20 11:58:43,593 :WARNING : test_standard_payment :Platba bez moznosti ulozit kartu - podle scenare OK
2020-02-20 11:58:43,593 :WARNING : test_standard_payment :Platba bez moznosti ulozit kartu - podle scenare OK
2020-02-20 11:59:20,464 :INFO : test_standard_payment :Platba zamitnuta - stav DECLINED - OK
2020-02-20 11:59:20,464 :INFO : test_standard_payment :Platba zamitnuta - stav DECLINED - OK
2020-02-20 11:59:26,249 :INFO : test_standard_payment :Platba bez platebniho tlacitka i MPASS - OK
2020-02-20 11:59:26,249 :INFO : test_standard_payment :Platba bez platebniho tlacitka i MPASS - OK
2020-02-20 11:59:26,249 :INFO : test_standard_payment :Platba bez platebniho tlacitka i MPASS - OK
2020-02-20 11:59:31,290 :WARNING : test_standard_payment :Platba bez moznosti ulozit kartu - podle scenare OK
2020-02-20 11:59:31,290 :WARNING : test_standard_payment :Platba bez moznosti ulozit kartu - podle scenare OK
2020-02-20 11:59:31,290 :WARNING : test_standard_payment :Platba bez moznosti ulozit kartu - podle scenare OK
2020-02-20 12:00:05,061 :INFO : test_standard_payment :Platba zamitnuta - stav DECLINED - OK
2020-02-20 12:00:05,061 :INFO : test_standard_payment :Platba zamitnuta - stav DECLINED - OK
2020-02-20 12:00:05,061 :INFO : test_standard_payment :Platba zamitnuta - stav DECLINED - OK
2020-02-20 12:00:10,794 :INFO : test_standard_payment :Platba bez platebniho tlacitka i MPASS - OK
2020-02-20 12:00:10,794 :INFO : test_standard_payment :Platba bez platebniho tlacitka i MPASS - OK
2020-02-20 12:00:10,794 :INFO : test_standard_payment :Platba bez platebniho tlacitka i MPASS - OK
2020-02-20 12:00:10,794 :INFO : test_standard_payment :Platba bez platebniho tlacitka i MPASS - OK
2020-02-20 12:00:15,839 :WARNING : test_standard_payment :Platba bez moznosti ulozit kartu - podle scenare OK
2020-02-20 12:00:15,839 :WARNING : test_standard_payment :Platba bez moznosti ulozit kartu - podle scenare OK
2020-02-20 12:00:15,839 :WARNING : test_standard_payment :Platba bez moznosti ulozit kartu - podle scenare OK
2020-02-20 12:00:15,839 :WARNING : test_standard_payment :Platba bez moznosti ulozit kartu - podle scenare OK
2020-02-20 12:00:22,970 :INFO : test_standard_payment :Akceptováno - stav CLEARED - OK
2020-02-20 12:00:22,970 :INFO : test_standard_payment :Akceptováno - stav CLEARED - OK
2020-02-20 12:00:22,970 :INFO : test_standard_payment :Akceptováno - stav CLEARED - OK
2020-02-20 12:00:22,970 :INFO : test_standard_payment :Akceptováno - stav CLEARED - OK
2020-02-20 12:00:28,702 :INFO : test_standard_payment :Platba bez platebniho tlacitka i MPASS - OK
2020-02-20 12:00:28,702 :INFO : test_standard_payment :Platba bez platebniho tlacitka i MPASS - OK
2020-02-20 12:00:28,702 :INFO : test_standard_payment :Platba bez platebniho tlacitka i MPASS - OK
2020-02-20 12:00:28,702 :INFO : test_standard_payment :Platba bez platebniho tlacitka i MPASS - OK
2020-02-20 12:00:28,702 :INFO : test_standard_payment :Platba bez platebniho tlacitka i MPASS - OK
2020-02-20 12:00:33,740 :WARNING : test_standard_payment :Platba bez moznosti ulozit kartu - podle scenare OK
2020-02-20 12:00:33,740 :WARNING : test_standard_payment :Platba bez moznosti ulozit kartu - podle scenare OK
2020-02-20 12:00:33,740 :WARNING : test_standard_payment :Platba bez moznosti ulozit kartu - podle scenare OK
2020-02-20 12:00:33,740 :WARNING : test_standard_payment :Platba bez moznosti ulozit kartu - podle scenare OK
2020-02-20 12:00:33,740 :WARNING : test_standard_payment :Platba bez moznosti ulozit kartu - podle scenare OK
2020-02-20 12:00:36,248 :INFO : test_standard_payment :Platba zamitnuta - stav DECLINED - OK
2020-02-20 12:00:36,248 :INFO : test_standard_payment :Platba zamitnuta - stav DECLINED - OK
2020-02-20 12:00:36,248 :INFO : test_standard_payment :Platba zamitnuta - stav DECLINED - OK
2020-02-20 12:00:36,248 :INFO : test_standard_payment :Platba zamitnuta - stav DECLINED - OK
2020-02-20 12:00:36,248 :INFO : test_standard_payment :Platba zamitnuta - stav DECLINED - OK
2020-02-20 12:00:41,989 :INFO : test_standard_payment :Platba bez platebniho tlacitka i MPASS - OK
2020-02-20 12:00:41,989 :INFO : test_standard_payment :Platba bez platebniho tlacitka i MPASS - OK
2020-02-20 12:00:41,989 :INFO : test_standard_payment :Platba bez platebniho tlacitka i MPASS - OK
2020-02-20 12:00:41,989 :INFO : test_standard_payment :Platba bez platebniho tlacitka i MPASS - OK
2020-02-20 12:00:41,989 :INFO : test_standard_payment :Platba bez platebniho tlacitka i MPASS - OK
2020-02-20 12:00:41,989 :INFO : test_standard_payment :Platba bez platebniho tlacitka i MPASS - OK
2020-02-20 12:00:47,032 :WARNING : test_standard_payment :Platba bez moznosti ulozit kartu - podle scenare OK
2020-02-20 12:00:47,032 :WARNING : test_standard_payment :Platba bez moznosti ulozit kartu - podle scenare OK
2020-02-20 12:00:47,032 :WARNING : test_standard_payment :Platba bez moznosti ulozit kartu - podle scenare OK
2020-02-20 12:00:47,032 :WARNING : test_standard_payment :Platba bez moznosti ulozit kartu - podle scenare OK
2020-02-20 12:00:47,032 :WARNING : test_standard_payment :Platba bez moznosti ulozit kartu - podle scenare OK
2020-02-20 12:00:47,032 :WARNING : test_standard_payment :Platba bez moznosti ulozit kartu - podle scenare OK
2020-02-20 12:00:54,393 :INFO : test_standard_payment :Akceptováno - stav CLEARED - OK
2020-02-20 12:00:54,393 :INFO : test_standard_payment :Akceptováno - stav CLEARED - OK
2020-02-20 12:00:54,393 :INFO : test_standard_payment :Akceptováno - stav CLEARED - OK
2020-02-20 12:00:54,393 :INFO : test_standard_payment :Akceptováno - stav CLEARED - OK
2020-02-20 12:00:54,393 :INFO : test_standard_payment :Akceptováno - stav CLEARED - OK
2020-02-20 12:00:54,393 :INFO : test_standard_payment :Akceptováno - stav CLEARED - OK
2020-02-20 12:01:00,121 :INFO : test_standard_payment :Platba bez platebniho tlacitka i MPASS - OK
2020-02-20 12:01:00,121 :INFO : test_standard_payment :Platba bez platebniho tlacitka i MPASS - OK
2020-02-20 12:01:00,121 :INFO : test_standard_payment :Platba bez platebniho tlacitka i MPASS - OK
2020-02-20 12:01:00,121 :INFO : test_standard_payment :Platba bez platebniho tlacitka i MPASS - OK
2020-02-20 12:01:00,121 :INFO : test_standard_payment :Platba bez platebniho tlacitka i MPASS - OK
2020-02-20 12:01:00,121 :INFO : test_standard_payment :Platba bez platebniho tlacitka i MPASS - OK
2020-02-20 12:01:00,121 :INFO : test_standard_payment :Platba bez platebniho tlacitka i MPASS - OK
2020-02-20 12:01:05,155 :WARNING : test_standard_payment :Platba bez moznosti ulozit kartu - podle scenare OK
2020-02-20 12:01:05,155 :WARNING : test_standard_payment :Platba bez moznosti ulozit kartu - podle scenare OK
2020-02-20 12:01:05,155 :WARNING : test_standard_payment :Platba bez moznosti ulozit kartu - podle scenare OK
2020-02-20 12:01:05,155 :WARNING : test_standard_payment :Platba bez moznosti ulozit kartu - podle scenare OK
2020-02-20 12:01:05,155 :WARNING : test_standard_payment :Platba bez moznosti ulozit kartu - podle scenare OK
2020-02-20 12:01:05,155 :WARNING : test_standard_payment :Platba bez moznosti ulozit kartu - podle scenare OK
2020-02-20 12:01:05,155 :WARNING : test_standard_payment :Platba bez moznosti ulozit kartu - podle scenare OK
2020-02-20 12:01:39,952 :INFO : test_standard_payment :Platba zamitnuta - stav DECLINED - OK
2020-02-20 12:01:39,952 :INFO : test_standard_payment :Platba zamitnuta - stav DECLINED - OK
2020-02-20 12:01:39,952 :INFO : test_standard_payment :Platba zamitnuta - stav DECLINED - OK
2020-02-20 12:01:39,952 :INFO : test_standard_payment :Platba zamitnuta - stav DECLINED - OK
2020-02-20 12:01:39,952 :INFO : test_standard_payment :Platba zamitnuta - stav DECLINED - OK
2020-02-20 12:01:39,952 :INFO : test_standard_payment :Platba zamitnuta - stav DECLINED - OK
2020-02-20 12:01:39,952 :INFO : test_standard_payment :Platba zamitnuta - stav DECLINED - OK
2020-02-20 12:01:46,532 :INFO : test_standard_payment :Platba bez platebniho tlacitka i MPASS - OK
2020-02-20 12:01:46,532 :INFO : test_standard_payment :Platba bez platebniho tlacitka i MPASS - OK
2020-02-20 12:01:46,532 :INFO : test_standard_payment :Platba bez platebniho tlacitka i MPASS - OK
2020-02-20 12:01:46,532 :INFO : test_standard_payment :Platba bez platebniho tlacitka i MPASS - OK
2020-02-20 12:01:46,532 :INFO : test_standard_payment :Platba bez platebniho tlacitka i MPASS - OK
2020-02-20 12:01:46,532 :INFO : test_standard_payment :Platba bez platebniho tlacitka i MPASS - OK
2020-02-20 12:01:46,532 :INFO : test_standard_payment :Platba bez platebniho tlacitka i MPASS - OK
2020-02-20 12:01:46,532 :INFO : test_standard_payment :Platba bez platebniho tlacitka i MPASS - OK
2020-02-20 12:01:51,603 :WARNING : test_standard_payment :Platba bez moznosti ulozit kartu - podle scenare OK
2020-02-20 12:01:51,603 :WARNING : test_standard_payment :Platba bez moznosti ulozit kartu - podle scenare OK
2020-02-20 12:01:51,603 :WARNING : test_standard_payment :Platba bez moznosti ulozit kartu - podle scenare OK
2020-02-20 12:01:51,603 :WARNING : test_standard_payment :Platba bez moznosti ulozit kartu - podle scenare OK
2020-02-20 12:01:51,603 :WARNING : test_standard_payment :Platba bez moznosti ulozit kartu - podle scenare OK
2020-02-20 12:01:51,603 :WARNING : test_standard_payment :Platba bez moznosti ulozit kartu - podle scenare OK
2020-02-20 12:01:51,603 :WARNING : test_standard_payment :Platba bez moznosti ulozit kartu - podle scenare OK
2020-02-20 12:01:51,603 :WARNING : test_standard_payment :Platba bez moznosti ulozit kartu - podle scenare OK
2020-02-20 12:01:54,172 :INFO : test_standard_payment :Platba zamitnuta - stav DECLINED - OK
2020-02-20 12:01:54,172 :INFO : test_standard_payment :Platba zamitnuta - stav DECLINED - OK
2020-02-20 12:01:54,172 :INFO : test_standard_payment :Platba zamitnuta - stav DECLINED - OK
2020-02-20 12:01:54,172 :INFO : test_standard_payment :Platba zamitnuta - stav DECLINED - OK
2020-02-20 12:01:54,172 :INFO : test_standard_payment :Platba zamitnuta - stav DECLINED - OK
2020-02-20 12:01:54,172 :INFO : test_standard_payment :Platba zamitnuta - stav DECLINED - OK
2020-02-20 12:01:54,172 :INFO : test_standard_payment :Platba zamitnuta - stav DECLINED - OK
2020-02-20 12:01:54,172 :INFO : test_standard_payment :Platba zamitnuta - stav DECLINED - OK
